%YAML 1.1
%TAG !u! tag:unity3d.com,2011:
--- !u!1045 &1
EditorBuildSettings:
  m_ObjectHideFlags: 0
  serializedVersion: 2
  m_Scenes:
  - enabled: 1
    path: Assets/Scenes/StartScene.unity
    guid: 096260173d9cf0f45ba0b4fcc356c7c6
  - enabled: 1
    path: Assets/Scenes/SampleScene.unity
    guid: cd92e2987265cf340893bae1fa50a5b1
  m_configObjects: {}
